%YAML 1.1
%TAG !u! tag:unity3d.com,2011:
--- !u!1001 &8574539875376109218
PrefabInstance:
  m_ObjectHideFlags: 0
  serializedVersion: 2
  m_Modification:
    m_TransformParent: {fileID: 0}
    m_Modifications:
    - target: {fileID: 8569963811015060850, guid: cbefdc26026e4f84f9a6d2b6f9e8be41,
        type: 3}
      propertyPath: m_LocalPosition.x
      value: -8.77
      objectReference: {fileID: 0}
    - target: {fileID: 8569963811015060850, guid: cbefdc26026e4f84f9a6d2b6f9e8be41,
        type: 3}
      propertyPath: m_LocalPosition.y
      value: -1.98
      objectReference: {fileID: 0}
    - target: {fileID: 8569963811015060850, guid: cbefdc26026e4f84f9a6d2b6f9e8be41,
        type: 3}
      propertyPath: m_LocalPosition.z
      value: -3.24
      objectReference: {fileID: 0}
    - target: {fileID: 8569963811015060850, guid: cbefdc26026e4f84f9a6d2b6f9e8be41,
        type: 3}
      propertyPath: m_LocalRotation.x
      value: -0
      objectReference: {fileID: 0}
    - target: {fileID: 8569963811015060850, guid: cbefdc26026e4f84f9a6d2b6f9e8be41,
        type: 3}
      propertyPath: m_LocalRotation.y
      value: -0
      objectReference: {fileID: 0}
    - target: {fileID: 8569963811015060850, guid: cbefdc26026e4f84f9a6d2b6f9e8be41,
        type: 3}
      propertyPath: m_LocalRotation.z
      value: -0
      objectReference: {fileID: 0}
    - target: {fileID: 8569963811015060850, guid: cbefdc26026e4f84f9a6d2b6f9e8be41,
        type: 3}
      propertyPath: m_LocalRotation.w
      value: 1
      objectReference: {fileID: 0}
    - target: {fileID: 8569963811015060850, guid: cbefdc26026e4f84f9a6d2b6f9e8be41,
        type: 3}
      propertyPath: m_RootOrder
      value: 0
      objectReference: {fileID: 0}
    - target: {fileID: 8569963811015060850, guid: cbefdc26026e4f84f9a6d2b6f9e8be41,
        type: 3}
      propertyPath: m_LocalEulerAnglesHint.x
      value: 0
      objectReference: {fileID: 0}
    - target: {fileID: 8569963811015060850, guid: cbefdc26026e4f84f9a6d2b6f9e8be41,
        type: 3}
      propertyPath: m_LocalEulerAnglesHint.y
      value: 0
      objectReference: {fileID: 0}
    - target: {fileID: 8569963811015060850, guid: cbefdc26026e4f84f9a6d2b6f9e8be41,
        type: 3}
      propertyPath: m_LocalEulerAnglesHint.z
      value: 0
      objectReference: {fileID: 0}
    - target: {fileID: 8572658282344966426, guid: cbefdc26026e4f84f9a6d2b6f9e8be41,
        type: 3}
      propertyPath: m_Name
      value: Sports
      objectReference: {fileID: 0}
    m_RemovedComponents: []
  m_SourcePrefab: {fileID: 100100000, guid: cbefdc26026e4f84f9a6d2b6f9e8be41, type: 3}
